…
## Analysis

Here we will first look at some descriptive statistics of the data.


```
## # A tibble: 28 x 3
##     Var1  Var2                        Freq
##    <chr> <chr>                       <chr>
##  1  <NA>  Date Min.   :2013-04-28 00:00:00
##  2  <NA>  Date 1st Qu.:2014-06-15 12:00:00
##  3  <NA>  Date Median :2015-08-03 00:00:00
##  4  <NA>  Date Mean   :2015-08-03 00:00:00
##  5  <NA>  Date 3rd Qu.:2016-09-19 12:00:00
##  6  <NA>  Date Max.   :2017-11-07 00:00:00
##  7  <NA>  Date                        <NA>
##  8  <NA> Close             Min.   :  68.43
##  9  <NA> Close             1st Qu.: 264.13
## 10  <NA> Close             Median : 453.38
## # ... with 18 more rows
```
…
